FPGA/cores/xge_ll_mac/mac_test/x.vcd
$date
	Mon Dec 28 12:57:40 2015
$end
$version
	ModelSim Version 10.4
$end
$timescale
	1ns
$end
$scope module mac_test $end
$var wire 1 ! xgmii_rxd [63] $end
$var wire 1 " xgmii_rxd [62] $end
$var wire 1 # xgmii_rxd [61] $end
$var wire 1 $ xgmii_rxd [60] $end
$var wire 1 % xgmii_rxd [59] $end
$var wire 1 & xgmii_rxd [58] $end
$var wire 1 ' xgmii_rxd [57] $end
$var wire 1 ( xgmii_rxd [56] $end
$var wire 1 ) xgmii_rxd [55] $end
$var wire 1 * xgmii_rxd [54] $end
$var wire 1 + xgmii_rxd [53] $end
$var wire 1 , xgmii_rxd [52] $end
$var wire 1 - xgmii_rxd [51] $end
$var wire 1 . xgmii_rxd [50] $end
$var wire 1 / xgmii_rxd [49] $end
$var wire 1 0 xgmii_rxd [48] $end
$var wire 1 1 xgmii_rxd [47] $end
$var wire 1 2 xgmii_rxd [46] $end
$var wire 1 3 xgmii_rxd [45] $end
$var wire 1 4 xgmii_rxd [44] $end
$var wire 1 5 xgmii_rxd [43] $end
$var wire 1 6 xgmii_rxd [42] $end
$var wire 1 7 xgmii_rxd [41] $end
$var wire 1 8 xgmii_rxd [40] $end
$var wire 1 9 xgmii_rxd [39] $end
$var wire 1 : xgmii_rxd [38] $end
$var wire 1 ; xgmii_rxd [37] $end
$var wire 1 < xgmii_rxd [36] $end
$var wire 1 = xgmii_rxd [35] $end
$var wire 1 > xgmii_rxd [34] $end
$var wire 1 ? xgmii_rxd [33] $end
$var wire 1 @ xgmii_rxd [32] $end
$var wire 1 A xgmii_rxd [31] $end
$var wire 1 B xgmii_rxd [30] $end
$var wire 1 C xgmii_rxd [29] $end
$var wire 1 D xgmii_rxd [28] $end
$var wire 1 E xgmii_rxd [27] $end
$var wire 1 F xgmii_rxd [26] $end
$var wire 1 G xgmii_rxd [25] $end
$var wire 1 H xgmii_rxd [24] $end
$var wire 1 I xgmii_rxd [23] $end
$var wire 1 J xgmii_rxd [22] $end
$var wire 1 K xgmii_rxd [21] $end
$var wire 1 L xgmii_rxd [20] $end
$var wire 1 M xgmii_rxd [19] $end
$var wire 1 N xgmii_rxd [18] $end
$var wire 1 O xgmii_rxd [17] $end
$var wire 1 P xgmii_rxd [16] $end
$var wire 1 Q xgmii_rxd [15] $end
$var wire 1 R xgmii_rxd [14] $end
$var wire 1 S xgmii_rxd [13] $end
$var wire 1 T xgmii_rxd [12] $end
$var wire 1 U xgmii_rxd [11] $end
$var wire 1 V xgmii_rxd [10] $end
$var wire 1 W xgmii_rxd [9] $end
$var wire 1 X xgmii_rxd [8] $end
$var wire 1 Y xgmii_rxd [7] $end
$var wire 1 Z xgmii_rxd [6] $end
$var wire 1 [ xgmii_rxd [5] $end
$var wire 1 \ xgmii_rxd [4] $end
$var wire 1 ] xgmii_rxd [3] $end
$var wire 1 ^ xgmii_rxd [2] $end
$var wire 1 _ xgmii_rxd [1] $end
$var wire 1 ` xgmii_rxd [0] $end
$var wire 1 a xgmii_rxc [7] $end
$var wire 1 b xgmii_rxc [6] $end
$var wire 1 c xgmii_rxc [5] $end
$var wire 1 d xgmii_rxc [4] $end
$var wire 1 e xgmii_rxc [3] $end
$var wire 1 f xgmii_rxc [2] $end
$var wire 1 g xgmii_rxc [1] $end
$var wire 1 h xgmii_rxc [0] $end
$var wire 1 i rx_state [7] $end
$var wire 1 j rx_state [6] $end
$var wire 1 k rx_state [5] $end
$var wire 1 l rx_state [4] $end
$var wire 1 m rx_state [3] $end
$var wire 1 n rx_state [2] $end
$var wire 1 o rx_state [1] $end
$var wire 1 p rx_state [0] $end
$var wire 1 q rx_data_valid_exp [7] $end
$var wire 1 r rx_data_valid_exp [6] $end
$var wire 1 s rx_data_valid_exp [5] $end
$var wire 1 t rx_data_valid_exp [4] $end
$var wire 1 u rx_data_valid_exp [3] $end
$var wire 1 v rx_data_valid_exp [2] $end
$var wire 1 w rx_data_valid_exp [1] $end
$var wire 1 x rx_data_valid_exp [0] $end
$var wire 1 y rx_data_exp [63] $end
$var wire 1 z rx_data_exp [62] $end
$var wire 1 { rx_data_exp [61] $end
$var wire 1 | rx_data_exp [60] $end
$var wire 1 } rx_data_exp [59] $end
$var wire 1 ~ rx_data_exp [58] $end
$var wire 1 !! rx_data_exp [57] $end
$var wire 1 "! rx_data_exp [56] $end
$var wire 1 #! rx_data_exp [55] $end
$var wire 1 $! rx_data_exp [54] $end
$var wire 1 %! rx_data_exp [53] $end
$var wire 1 &! rx_data_exp [52] $end
$var wire 1 '! rx_data_exp [51] $end
$var wire 1 (! rx_data_exp [50] $end
$var wire 1 )! rx_data_exp [49] $end
$var wire 1 *! rx_data_exp [48] $end
$var wire 1 +! rx_data_exp [47] $end
$var wire 1 ,! rx_data_exp [46] $end
$var wire 1 -! rx_data_exp [45] $end
$var wire 1 .! rx_data_exp [44] $end
$var wire 1 /! rx_data_exp [43] $end
$var wire 1 0! rx_data_exp [42] $end
$var wire 1 1! rx_data_exp [41] $end
$var wire 1 2! rx_data_exp [40] $end
$var wire 1 3! rx_data_exp [39] $end
$var wire 1 4! rx_data_exp [38] $end
$var wire 1 5! rx_data_exp [37] $end
$var wire 1 6! rx_data_exp [36] $end
$var wire 1 7! rx_data_exp [35] $end
$var wire 1 8! rx_data_exp [34] $end
$var wire 1 9! rx_data_exp [33] $end
$var wire 1 :! rx_data_exp [32] $end
$var wire 1 ;! rx_data_exp [31] $end
$var wire 1 <! rx_data_exp [30] $end
$var wire 1 =! rx_data_exp [29] $end
$var wire 1 >! rx_data_exp [28] $end
$var wire 1 ?! rx_data_exp [27] $end
$var wire 1 @! rx_data_exp [26] $end
$var wire 1 A! rx_data_exp [25] $end
$var wire 1 B! rx_data_exp [24] $end
$var wire 1 C! rx_data_exp [23] $end
$var wire 1 D! rx_data_exp [22] $end
$var wire 1 E! rx_data_exp [21] $end
$var wire 1 F! rx_data_exp [20] $end
$var wire 1 G! rx_data_exp [19] $end
$var wire 1 H! rx_data_exp [18] $end
$var wire 1 I! rx_data_exp [17] $end
$var wire 1 J! rx_data_exp [16] $end
$var wire 1 K! rx_data_exp [15] $end
$var wire 1 L! rx_data_exp [14] $end
$var wire 1 M! rx_data_exp [13] $end
$var wire 1 N! rx_data_exp [12] $end
$var wire 1 O! rx_data_exp [11] $end
$var wire 1 P! rx_data_exp [10] $end
$var wire 1 Q! rx_data_exp [9] $end
$var wire 1 R! rx_data_exp [8] $end
$var wire 1 S! rx_data_exp [7] $end
$var wire 1 T! rx_data_exp [6] $end
$var wire 1 U! rx_data_exp [5] $end
$var wire 1 V! rx_data_exp [4] $end
$var wire 1 W! rx_data_exp [3] $end
$var wire 1 X! rx_data_exp [2] $end
$var wire 1 Y! rx_data_exp [1] $end
$var wire 1 Z! rx_data_exp [0] $end
$var wire 1 [! status_reg_1 $end
$var wire 1 \! status_reg_2 $end
$var wire 1 ]! status_reg $end
$var wire 1 ^! rx_bad_frame_exp $end
$var wire 1 _! rx_good_frame_exp $end
$var wire 1 `! rx_start $end
$var wire 1 a! TRIGGER $end
$var wire 1 b! WINDOW $end
$var wire 1 c! GAP $end
$upscope $end
$enddefinitions $end
#0
0!
0"
0#
0$
0%
1&
1'
1(
0)
0*
0+
0,
0-
1.
1/
10
01
02
03
04
05
16
17
18
09
0:
0;
0<
0=
1>
1?
1@
0A
0B
0C
0D
0E
1F
1G
1H
0I
0J
0K
0L
0M
1N
1O
1P
0Q
0R
0S
0T
0U
1V
1W
1X
0Y
0Z
0[
0\
0]
1^
1_
1`
1a
1b
1c
1d
1e
1f
1g
1h
0i
0j
0k
0l
0m
0n
0o
0p
0q
0r
0s
0t
0u
0v
0w
0x
0y
0z
0{
0|
0}
1~
1!!
1"!
0#!
0$!
0%!
0&!
0'!
1(!
1)!
1*!
0+!
0,!
0-!
0.!
0/!
10!
11!
12!
03!
04!
05!
06!
07!
18!
19!
1:!
0;!
0<!
0=!
0>!
0?!
1@!
1A!
1B!
0C!
0D!
0E!
0F!
0G!
1H!
1I!
1J!
0K!
0L!
0M!
0N!
0O!
1P!
1Q!
1R!
0S!
0T!
0U!
0V!
0W!
1X!
1Y!
1Z!
0[!
0\!
0]!
0^!
0_!
0`!
0a!
1b!
0c!
#184
1!
1"
0#
1$
0%
1&
0'
1(
0)
1*
0+
1,
0-
1.
0/
10
01
12
03
14
05
16
07
18
09
1:
0;
1<
0=
1>
0?
1@
0A
1B
0C
1D
0E
1F
0G
1H
0I
1J
0K
1L
0M
1N
0O
1P
0Q
1R
0S
1T
0U
1V
0W
1X
1Y
1Z
1[
1\
1]
0^
1_
1`
0a
0b
0c
0d
0e
0f
0g
1h
#185
0!
0"
1#
0$
0%
1&
0'
1(
0)
0*
0+
0,
0-
0.
0/
00
11
12
13
14
05
06
07
08
09
1:
0;
1<
0=
1>
0?
0@
0A
1B
0C
0D
1E
0F
0G
1H
0I
1J
1K
1L
0M
1N
1O
1P
0Q
0R
0S
1T
1U
0V
1W
1X
0Y
0Z
0[
0\
0]
0^
0_
0`
0a
0b
0c
0d
0e
0f
0g
0h
#186
0!
0"
0#
0$
0%
0&
0'
0(
0)
1*
0+
0,
0-
1.
0/
10
01
02
03
04
05
06
07
08
09
0:
0;
0<
1=
0>
0?
0@
1A
0B
1C
1D
1E
1F
1G
1H
1I
1J
0K
0L
0M
0N
1O
0P
1Q
1R
1S
0T
0U
0V
0W
1X
1Y
0Z
0[
1\
0]
0^
0_
0`
#187
0!
0"
0#
1$
0%
0&
0'
1(
0)
1*
0+
0,
0-
0.
0/
00
01
02
03
04
05
06
07
08
09
1:
0;
0<
0=
0>
0?
0@
0A
0B
0C
1D
1E
0F
1G
1H
0I
1J
1K
0L
0M
0N
1O
0P
0Q
1R
0S
0T
1U
1V
0W
0X
0Y
0Z
0[
0\
0]
0^
0_
0`
#188
1!
0"
1#
0$
1%
0&
0'
0(
1)
1*
0+
0,
0-
0.
0/
00
01
02
03
04
05
06
07
18
09
0:
0;
0<
0=
0>
1?
0@
1A
0B
1C
0D
1E
0F
0G
0H
1I
1J
0K
0L
0M
0N
0O
0P
1Q
1R
0S
1T
0U
0V
0W
0X
0Y
1Z
0[
1\
0]
0^
1_
0`
1y
1z
0{
1|
0}
1~
0!!
1"!
0#!
1$!
0%!
1&!
0'!
1(!
0)!
1*!
0+!
1,!
0-!
1.!
0/!
10!
01!
12!
03!
14!
05!
16!
07!
18!
09!
1:!
0;!
1<!
0=!
1>!
0?!
1@!
0A!
1B!
0C!
1D!
0E!
1F!
0G!
1H!
0I!
1J!
0K!
1L!
0M!
1N!
0O!
1P!
0Q!
1R!
1S!
1T!
1U!
1V!
1W!
0X!
1Y!
1Z!
#189
0!
0"
1#
1$
1%
0&
0'
0(
0)
0*
0+
0,
0-
0.
0/
00
01
12
13
14
15
06
17
18
09
0:
0;
0<
0=
0>
0?
0@
0A
1B
1C
1D
1E
0F
0G
0H
1I
1J
0K
0L
1M
1N
0O
0P
0Q
1R
1S
0T
0U
1V
0W
0X
0Y
0Z
0[
0\
0]
0^
1_
0`
1q
1r
1s
1t
1u
1v
1w
1x
0y
0z
1{
0|
0}
1~
0!!
1"!
0#!
0$!
0%!
0&!
0'!
0(!
0)!
0*!
1+!
1,!
1-!
1.!
0/!
00!
01!
02!
03!
14!
05!
16!
07!
18!
09!
0:!
0;!
1<!
0=!
0>!
1?!
0@!
0A!
1B!
0C!
1D!
1E!
1F!
0G!
1H!
1I!
1J!
0K!
0L!
0M!
1N!
1O!
0P!
1Q!
1R!
0S!
0T!
0U!
0V!
0W!
0X!
0Y!
0Z!
1`!
#190
0!
0"
0#
0$
0%
0&
0'
1(
0)
0*
0+
0,
0-
0.
0/
00
11
12
13
14
15
06
17
08
09
0:
0;
0<
0=
0>
1?
1@
0A
0B
0C
0D
0E
0F
0G
0H
1I
1J
1K
0L
0M
0N
1O
1P
1Q
1R
0S
1T
1U
1V
1W
1X
1Y
0Z
0[
0\
1]
1^
0_
0`
0i
0j
0k
1l
0m
0n
0o
1p
0y
0z
0{
0|
0}
0~
0!!
0"!
0#!
1$!
0%!
0&!
0'!
1(!
0)!
1*!
0+!
0,!
0-!
0.!
0/!
00!
01!
02!
03!
04!
05!
06!
17!
08!
09!
0:!
1;!
0<!
1=!
1>!
1?!
1@!
1A!
1B!
1C!
1D!
0E!
0F!
0G!
0H!
1I!
0J!
1K!
1L!
1M!
0N!
0O!
0P!
0Q!
1R!
1S!
0T!
0U!
1V!
0W!
0X!
0Y!
0Z!
0`!
#191
0!
0"
0#
0$
0%
0&
0'
0(
0)
0*
0+
0,
0-
0.
0/
00
01
02
03
04
05
06
07
08
09
0:
0;
0<
0=
0>
0?
0@
0A
0B
0C
0D
0E
0F
0G
1H
0I
0J
0K
0L
0M
0N
0O
0P
0Q
0R
0S
0T
0U
0V
0W
0X
0Y
0Z
0[
0\
0]
0^
0_
0`
0i
0j
0k
1l
0m
0n
1o
0p
0y
0z
0{
1|
0}
0~
0!!
1"!
0#!
1$!
0%!
0&!
0'!
0(!
0)!
0*!
0+!
0,!
0-!
0.!
0/!
00!
01!
02!
03!
14!
05!
06!
07!
08!
09!
0:!
0;!
0<!
0=!
1>!
1?!
0@!
1A!
1B!
0C!
1D!
1E!
0F!
0G!
0H!
1I!
0J!
0K!
1L!
0M!
0N!
1O!
1P!
0Q!
0R!
0S!
0T!
0U!
0V!
0W!
0X!
0Y!
0Z!
#192
0!
0"
0#
0$
0%
0&
0'
0(
0)
0*
0+
0,
0-
0.
0/
00
01
02
03
04
05
06
07
08
09
0:
0;
0<
0=
0>
0?
0@
0A
0B
0C
0D
0E
0F
0G
0H
0I
0J
0K
0L
0M
0N
0O
0P
0Q
0R
0S
0T
0U
0V
0W
0X
0Y
0Z
0[
0\
0]
0^
0_
0`
0i
0j
0k
1l
0m
0n
1o
1p
1y
0z
1{
0|
1}
0~
0!!
0"!
1#!
1$!
0%!
0&!
0'!
0(!
0)!
0*!
0+!
0,!
0-!
0.!
0/!
00!
01!
12!
03!
04!
05!
06!
07!
08!
19!
0:!
1;!
0<!
1=!
0>!
1?!
0@!
0A!
0B!
1C!
1D!
0E!
0F!
0G!
0H!
0I!
0J!
1K!
1L!
0M!
1N!
0O!
0P!
0Q!
0R!
0S!
1T!
0U!
1V!
0W!
0X!
1Y!
0Z!
#193
0i
0j
0k
1l
0m
1n
0o
0p
0y
0z
1{
1|
1}
0~
0!!
0"!
0#!
0$!
0%!
0&!
0'!
0(!
0)!
0*!
0+!
1,!
1-!
1.!
1/!
00!
11!
12!
03!
04!
05!
06!
07!
08!
09!
0:!
0;!
1<!
1=!
1>!
1?!
0@!
0A!
0B!
1C!
1D!
0E!
0F!
1G!
1H!
0I!
0J!
0K!
1L!
1M!
0N!
0O!
1P!
0Q!
0R!
0S!
0T!
0U!
0V!
0W!
0X!
1Y!
0Z!
#194
0i
0j
0k
1l
0m
1n
0o
1p
0y
0z
0{
0|
0}
0~
0!!
1"!
0#!
0$!
0%!
0&!
0'!
0(!
0)!
0*!
1+!
1,!
1-!
1.!
1/!
00!
11!
02!
03!
04!
05!
06!
07!
08!
19!
1:!
0;!
0<!
0=!
0>!
0?!
0@!
0A!
0B!
1C!
1D!
1E!
0F!
0G!
0H!
1I!
1J!
1K!
1L!
0M!
1N!
1O!
1P!
1Q!
1R!
1S!
0T!
0U!
0V!
1W!
1X!
0Y!
0Z!
#195
0!
0"
0#
0$
1%
0&
0'
1(
0)
0*
1+
1,
1-
0.
0/
00
01
02
13
14
05
16
17
18
19
0:
0;
0<
0=
0>
0?
1@
0A
0B
1C
0D
0E
0F
0G
0H
1I
1J
0K
1L
1M
0N
1O
0P
0Q
0R
0S
0T
0U
0V
0W
0X
0Y
0Z
0[
0\
0]
0^
0_
0`
0i
0j
0k
1l
0m
1n
1o
0p
0y
0z
0{
0|
0}
0~
0!!
0"!
0#!
0$!
0%!
0&!
0'!
0(!
0)!
0*!
0+!
0,!
0-!
0.!
0/!
00!
01!
02!
03!
04!
05!
06!
07!
08!
09!
0:!
0;!
0<!
0=!
0>!
0?!
0@!
0A!
1B!
0C!
0D!
0E!
0F!
0G!
0H!
0I!
0J!
0K!
0L!
0M!
0N!
0O!
0P!
0Q!
0R!
0S!
0T!
0U!
0V!
0W!
0X!
0Y!
0Z!
#196
0!
0"
0#
0$
0%
1&
1'
1(
1)
1*
1+
1,
1-
1.
0/
10
11
02
03
04
15
16
07
18
19
1:
0;
0<
1=
1>
0?
1@
1A
0B
1C
0D
0E
1F
1G
0H
0I
0J
0K
0L
0M
0N
0O
1P
1Q
0R
0S
1T
0U
1V
1W
0X
1Y
0Z
1[
0\
0]
1^
0_
1`
1a
1b
0c
0d
0e
0f
0g
0h
0i
0j
0k
1l
0m
1n
1o
1p
0y
0z
0{
0|
0}
0~
0!!
0"!
0#!
0$!
0%!
0&!
0'!
0(!
0)!
0*!
0+!
0,!
0-!
0.!
0/!
00!
01!
02!
03!
04!
05!
06!
07!
08!
09!
0:!
0;!
0<!
0=!
0>!
0?!
0@!
0A!
0B!
0C!
0D!
0E!
0F!
0G!
0H!
0I!
0J!
0K!
0L!
0M!
0N!
0O!
0P!
0Q!
0R!
0S!
0T!
0U!
0V!
0W!
0X!
0Y!
0Z!
#197
0!
1"
0#
1$
0%
1&
0'
1(
0)
1*
0+
1,
0-
1.
0/
10
01
12
03
14
05
16
07
18
19
1:
1;
1<
1=
0>
1?
1@
0A
0B
0C
0D
0E
1F
1G
1H
0I
0J
0K
0L
0M
1N
1O
1P
0Q
0R
0S
0T
0U
1V
1W
1X
0Y
0Z
0[
0\
0]
1^
1_
1`
0a
0b
0c
1d
1e
1f
1g
1h
0i
0j
0k
1l
1m
0n
0o
0p
#198
0!
1"
0#
0$
1%
0&
0'
1(
0)
1*
1+
1,
0-
1.
1/
10
01
02
03
14
15
06
17
18
09
0:
0;
0<
0=
0>
0?
0@
1A
1B
0C
1D
0E
1F
0G
1H
0I
1J
0K
1L
0M
1N
0O
1P
0Q
1R
0S
1T
0U
1V
0W
1X
0Y
1Z
0[
1\
0]
1^
0_
1`
0a
0b
0c
0d
0e
0f
0g
0h
0i
0j
0k
1l
1m
0n
0o
1p
#199
1!
0"
1#
1$
1%
1&
1'
1(
1)
1*
0+
0,
0-
0.
1/
00
11
12
13
04
05
06
07
18
19
0:
0;
1<
0=
0>
0?
0@
0A
0B
1C
0D
0E
1F
0G
1H
0I
0J
0K
0L
0M
0N
0O
0P
1Q
1R
1S
1T
0U
0V
0W
0X
0Y
1Z
0[
1\
0]
1^
0_
0`
0i
0j
0k
1l
1m
0n
1o
0p
0y
0z
0{
0|
1}
0~
0!!
1"!
0#!
0$!
1%!
1&!
1'!
0(!
0)!
0*!
0+!
0,!
1-!
1.!
0/!
10!
11!
12!
13!
04!
05!
06!
07!
08!
09!
1:!
0;!
0<!
1=!
0>!
0?!
0@!
0A!
0B!
1C!
1D!
0E!
1F!
1G!
0H!
1I!
0J!
0K!
0L!
0M!
0N!
0O!
0P!
0Q!
0R!
0S!
0T!
0U!
0V!
0W!
0X!
0Y!
0Z!
#200
0!
0"
0#
1$
1%
0&
1'
0(
0)
1*
1+
0,
0-
0.
1/
00
01
12
03
04
15
16
07
08
09
0:
0;
0<
0=
0>
0?
0@
0A
0B
0C
0D
0E
0F
0G
0H
0I
1J
0K
0L
0M
1N
0O
1P
0Q
0R
0S
0T
0U
0V
0W
0X
0Y
0Z
0[
0\
1]
0^
0_
0`
0i
0j
0k
1l
1m
0n
1o
1p
0q
0r
1s
1t
1u
1v
1w
1x
0y
0z
0{
0|
0}
1~
1!!
1"!
1#!
1$!
1%!
1&!
1'!
1(!
0)!
1*!
1+!
0,!
0-!
0.!
1/!
10!
01!
12!
13!
14!
05!
06!
17!
18!
09!
1:!
1;!
0<!
1=!
0>!
0?!
1@!
1A!
0B!
0C!
0D!
0E!
0F!
0G!
0H!
0I!
1J!
1K!
0L!
0M!
1N!
0O!
1P!
1Q!
0R!
1S!
0T!
1U!
0V!
0W!
1X!
0Y!
1Z!
1^!
1a!
#201
1!
0"
1#
0$
1%
0&
0'
0(
1)
1*
0+
0,
0-
0.
0/
00
11
12
03
14
05
06
07
18
09
1:
0;
1<
0=
0>
1?
0@
0A
0B
0C
1D
0E
0F
0G
1H
0I
1J
0K
0L
0M
0N
0O
0P
0Q
0R
0S
0T
0U
0V
0W
0X
0Y
1Z
0[
0\
0]
0^
0_
0`
0i
0j
0k
0l
0m
0n
0o
0p
0q
0r
0s
0t
0u
0v
0w
0x
0y
0z
0{
0|
0}
1~
1!!
1"!
0#!
0$!
0%!
0&!
0'!
1(!
1)!
1*!
0+!
0,!
0-!
0.!
0/!
10!
11!
12!
03!
04!
05!
06!
07!
18!
19!
1:!
0;!
0<!
0=!
0>!
0?!
1@!
1A!
1B!
1C!
1D!
1E!
1F!
1G!
1H!
0I!
1J!
1K!
0L!
0M!
0N!
1O!
1P!
0Q!
1R!
1S!
1T!
0U!
0V!
1W!
1X!
0Y!
1Z!
1\!
0^!
#202
0!
0"
1#
1$
0%
0&
1'
1(
1)
1*
0+
0,
1-
1.
1/
10
01
12
13
04
05
16
07
08
09
0:
0;
0<
0=
0>
1?
0@
1A
0B
1C
0D
1E
0F
0G
0H
1I
1J
0K
0L
0M
0N
0O
0P
0Q
0R
0S
0T
0U
0V
0W
1X
0Y
0Z
0[
0\
0]
0^
1_
0`
1y
1z
0{
1|
0}
1~
0!!
1"!
0#!
1$!
0%!
1&!
0'!
1(!
0)!
1*!
0+!
1,!
0-!
1.!
0/!
10!
01!
12!
03!
14!
05!
16!
07!
18!
09!
1:!
0;!
1<!
0=!
1>!
0?!
1@!
0A!
1B!
0C!
1D!
0E!
1F!
0G!
1H!
0I!
1J!
0K!
1L!
0M!
1N!
0O!
1P!
0Q!
1R!
1S!
1T!
1U!
1V!
1W!
0X!
1Y!
1Z!
0\!
#203
0!
0"
0#
0$
0%
0&
0'
0(
1)
1*
1+
0,
0-
0.
1/
10
01
02
03
14
15
16
07
18
19
0:
0;
1<
1=
1>
0?
1@
0A
0B
1C
1D
1E
0F
0G
0H
0I
0J
0K
0L
0M
0N
0O
0P
0Q
1R
1S
1T
1U
0V
1W
1X
0Y
0Z
0[
0\
0]
0^
0_
0`
1q
1r
1s
1t
1u
1v
1w
1x
0y
0z
1{
0|
0}
1~
0!!
1"!
0#!
0$!
0%!
0&!
0'!
0(!
0)!
0*!
1+!
1,!
1-!
1.!
0/!
00!
01!
02!
03!
14!
05!
16!
07!
18!
09!
0:!
0;!
1<!
0=!
0>!
1?!
0@!
0A!
1B!
0C!
1D!
1E!
1F!
0G!
1H!
1I!
1J!
0K!
0L!
0M!
1N!
1O!
0P!
1Q!
1R!
0S!
0T!
0U!
0V!
0W!
0X!
0Y!
0Z!
1`!
#204
0!
0"
0#
0$
0%
0&
0'
1(
0)
0*
0+
0,
0-
0.
0/
00
01
02
03
04
05
06
07
08
09
0:
0;
0<
0=
0>
0?
0@
0A
0B
0C
0D
0E
0F
0G
1H
0I
0J
0K
0L
0M
0N
0O
0P
1Q
1R
1S
1T
1U
0V
1W
0X
0Y
0Z
0[
0\
0]
0^
1_
1`
0i
0j
0k
1l
0m
0n
0o
1p
0y
0z
0{
0|
0}
0~
0!!
0"!
0#!
1$!
0%!
0&!
0'!
1(!
0)!
1*!
0+!
0,!
0-!
0.!
0/!
00!
01!
02!
03!
04!
05!
06!
17!
08!
09!
0:!
1;!
0<!
1=!
1>!
1?!
1@!
1A!
1B!
1C!
1D!
0E!
0F!
0G!
0H!
1I!
0J!
1K!
1L!
1M!
0N!
0O!
0P!
0Q!
1R!
1S!
0T!
0U!
1V!
0W!
0X!
0Y!
0Z!
0`!
#205
0!
0"
0#
0$
0%
0&
0'
0(
0)
0*
0+
0,
0-
0.
0/
00
01
02
03
04
05
06
07
08
09
0:
0;
0<
0=
0>
0?
0@
0A
0B
0C
0D
0E
0F
0G
0H
0I
0J
0K
0L
0M
0N
0O
0P
0Q
0R
0S
0T
0U
0V
0W
0X
0Y
0Z
0[
0\
0]
0^
0_
0`
0i
0j
0k
1l
0m
0n
1o
0p
0y
0z
0{
1|
0}
0~
0!!
1"!
0#!
1$!
0%!
0&!
0'!
0(!
0)!
0*!
0+!
0,!
0-!
0.!
0/!
00!
01!
02!
03!
14!
05!
06!
07!
08!
09!
0:!
0;!
0<!
0=!
1>!
1?!
0@!
1A!
0B!
0C!
1D!
1E!
0F!
0G!
0H!
1I!
0J!
0K!
1L!
0M!
0N!
1O!
1P!
0Q!
0R!
0S!
0T!
0U!
0V!
0W!
0X!
0Y!
0Z!
#206
0i
0j
0k
1l
0m
0n
1o
1p
1y
0z
1{
0|
1}
0~
0!!
0"!
1#!
1$!
0%!
0&!
0'!
0(!
0)!
0*!
0+!
0,!
0-!
0.!
0/!
00!
01!
12!
03!
04!
05!
06!
07!
08!
19!
0:!
1;!
0<!
1=!
0>!
1?!
0@!
0A!
0B!
1C!
1D!
0E!
0F!
0G!
0H!
0I!
0J!
1K!
1L!
0M!
1N!
0O!
0P!
0Q!
1R!
0S!
1T!
0U!
1V!
0W!
0X!
1Y!
0Z!
#207
0i
0j
0k
1l
0m
1n
0o
0p
0y
0z
1{
1|
1}
0~
0!!
0"!
0#!
0$!
0%!
0&!
0'!
0(!
0)!
0*!
0+!
1,!
1-!
1.!
1/!
00!
11!
12!
03!
04!
05!
06!
07!
08!
09!
0:!
0;!
0<!
1=!
1>!
0?!
0@!
1A!
1B!
1C!
1D!
0E!
0F!
1G!
1H!
1I!
1J!
0K!
1L!
1M!
0N!
0O!
1P!
0Q!
0R!
0S!
0T!
0U!
0V!
0W!
0X!
1Y!
0Z!
#208
0!
0"
1#
0$
0%
0&
0'
0(
1)
1*
0+
1,
1-
0.
1/
00
01
02
03
04
05
06
07
08
09
0:
0;
0<
0=
0>
0?
0@
0A
0B
0C
0D
0E
0F
0G
0H
0I
0J
0K
0L
0M
0N
0O
0P
0Q
0R
0S
0T
0U
0V
0W
0X
0Y
0Z
0[
0\
0]
0^
0_
0`
0i
0j
0k
1l
0m
1n
0o
1p
0y
0z
0{
0|
0}
0~
0!!
1"!
0#!
0$!
0%!
0&!
0'!
0(!
0)!
0*!
1+!
1,!
1-!
1.!
1/!
00!
11!
02!
03!
04!
05!
06!
07!
08!
19!
1:!
0;!
0<!
0=!
0>!
0?!
0@!
0A!
0B!
1C!
1D!
1E!
0F!
0G!
0H!
1I!
1J!
0K!
0L!
0M!
1N!
1O!
1P!
0Q!
1R!
1S!
0T!
0U!
1V!
1W!
1X!
0Y!
1Z!
#209
1!
0"
1#
1$
1%
0&
1'
1(
1)
1*
1+
0,
0-
1.
0/
00
11
02
03
14
15
16
07
18
19
0:
0;
1<
0=
0>
1?
0@
0A
0B
0C
0D
1E
0F
0G
1H
0I
0J
1K
1L
1M
0N
0O
0P
0Q
0R
1S
1T
0U
1V
1W
1X
1Y
0Z
0[
0\
0]
0^
0_
1`
0i
0j
0k
1l
0m
1n
1o
0p
0y
0z
0{
0|
0}
0~
0!!
0"!
0#!
0$!
0%!
0&!
0'!
0(!
0)!
0*!
0+!
0,!
0-!
0.!
0/!
00!
01!
02!
03!
04!
05!
06!
07!
08!
09!
0:!
0;!
0<!
0=!
0>!
0?!
0@!
0A!
1B!
0C!
0D!
0E!
0F!
0G!
0H!
0I!
0J!
0K!
0L!
0M!
0N!
0O!
0P!
0Q!
0R!
0S!
0T!
0U!
0V!
0W!
0X!
0Y!
0Z!
#210
0!
0"
0#
0$
0%
1&
1'
1(
0)
0*
0+
0,
0-
1.
1/
10
01
02
03
04
05
16
17
18
09
0:
0;
0<
0=
1>
1?
1@
0A
0B
0C
0D
0E
1F
1G
1H
1I
1J
1K
1L
1M
1N
0O
1P
1Q
1R
0S
0T
1U
0V
0W
0X
1Y
0Z
1[
0\
0]
1^
0_
1`
1a
1b
1c
1d
1e
1f
0g
0h
0i
0j
0k
1l
0m
1n
1o
1p
0y
0z
0{
0|
0}
0~
0!!
0"!
0#!
0$!
0%!
0&!
0'!
0(!
0)!
0*!
0+!
0,!
0-!
0.!
0/!
00!
01!
02!
03!
04!
05!
06!
07!
08!
09!
0:!
0;!
0<!
0=!
0>!
0?!
0@!
0A!
0B!
0C!
0D!
0E!
0F!
0G!
0H!
0I!
0J!
0K!
0L!
0M!
0N!
0O!
0P!
0Q!
0R!
0S!
0T!
0U!
0V!
0W!
0X!
0Y!
0Z!
#211
0!
0"
0#
0$
0%
1&
1'
1(
0)
0*
0+
0,
0-
1.
1/
10
01
02
03
04
05
16
17
18
09
0:
0;
0<
0=
1>
1?
1@
0A
0B
0C
0D
0E
1F
1G
1H
0I
0J
0K
0L
0M
1N
1O
1P
0Q
0R
0S
0T
0U
1V
1W
1X
0Y
0Z
0[
0\
0]
1^
1_
1`
1a
1b
1c
1d
1e
1f
1g
1h
0i
0j
0k
1l
1m
0n
0o
0p
#212
0i
0j
0k
1l
1m
0n
0o
1p
#213
0i
0j
0k
1l
1m
0n
1o
0p
0y
0z
0{
0|
1}
0~
0!!
1"!
0#!
0$!
1%!
1&!
1'!
0(!
0)!
0*!
0+!
0,!
1-!
1.!
0/!
10!
11!
12!
13!
04!
05!
06!
07!
08!
09!
1:!
0;!
0<!
1=!
0>!
0?!
0@!
0A!
0B!
1C!
1D!
0E!
1F!
1G!
0H!
1I!
0J!
0K!
0L!
0M!
0N!
0O!
0P!
0Q!
0R!
0S!
0T!
0U!
0V!
0W!
0X!
0Y!
0Z!
